Identifying grouping structure – DAPR3 Lab Exercises
…
ppt is a grouping variable because each of its values appears more than once.

clothing |> group_by(ppt) |> count()

# A tibble: 30 × 2
# Groups:   ppt [30]
   ppt        n
   <chr>  <int>
 1 ppt_1     20
 2 ppt_10    20
 3 ppt_11    20
 4 ppt_12    20
 5 ppt_13    20
 6 ppt_14    20
 7 ppt_15    20
 8 ppt_16    20
 9 ppt_17    20
10 ppt_18    20
# ℹ 20 more rows
…
monkey |> group_by(difficulty) |> count()

# A tibble: 2 × 2
# Groups:   difficulty [2]
  difficulty     n
  <chr>      <int>
1 difficult    189
2 easy         208

monkeyID is a grouping variable because each of its values appears more than once.

monkey |> group_by(monkeyID) |> count()

# A tibble: 50 × 2
# Groups:   monkeyID [50]
   monkeyID      n
   <chr>     <int>
 1 Aliyya        7
 2 Ashley        6
 3 Billy         7
 4 Brianna       5
 5 Catherine     9
 6 Celestina     5
 7 Cheyenne      6
 8 Cinoi        10
 9 Courtney      7
10 Daniel        8
# ℹ 40 more rows
…
🗂️ See Grouping variables and Identify grouping variables flash cards.

Solution

Solution 8. 

laughs <- read_csv('https://uoepsy.github.io/data/lmm_laughs.csv')

We’ll go through each variable in laughs one by one.

ppt is a grouping variable because each of its values appears more than once.

laughs |> group_by(ppt) |> count()

# A tibble: 90 × 2
# Groups:   ppt [90]
   ppt         n
   <chr>   <int>
 1 PPTID1     30
 2 PPTID10    30
 3 PPTID11    30
 4 PPTID12    30
 5 PPTID13    30
 6 PPTID14    30
 7 PPTID15    30
 8 PPTID16    30
 9 PPTID17    30
10 PPTID18    30
# ℹ 80 more rows

joke_label is a grouping variable because each of its values appears more than once.

laughs |> group_by(joke_label) |> count()

# A tibble: 30 × 2
# Groups:   joke_label [30]
   joke_label                                                                  n
   <chr>                                                                   <int>
 1 "A couple of New Jersey hunters are out in the woods when one of them …    90
 2 "A doctor says to his patient, 'I have bad news and worse news'. 'Oh d…    90
 3 "A general noticed one of his soldiers behaving oddly. The soldier wou…    90
 4 "A man and a friend are playing golf one day at their local golf cours…    90
 5 "A man goes into the doctor with a penguin on his head. The doctor say…    90
 6 "A patient says: \"Doctor, last night I made a Freudian slip, I was ha…    90
 7 "A termite walks into a cocktail lounge and asks a customer \"is the b…    90
 8 "A turtle was walking down an alley in New York when he was mugged by …    90
 9 "A woman gets on a bus with her baby. The bus driver says: \"That's th…    90
10 "An Alsatian went to a telegram office, took out a blank form and wrot…    90
# ℹ 20 more rows

joke_id is a grouping variable because each of its values appears more than once. (joke_id and joke_label contain the same information, just with different amounts of detail.)

laughs |> group_by(joke_id) |> count()

# A tibble: 30 × 2
# Groups:   joke_id [30]
   joke_id     n
     <dbl> <int>
 1       1    90
 2       2    90
 3       3    90
 4       4    90
 5       5    90
 6       6    90
 7       7    90
 8       8    90
 9       9    90
10      10    90
# ℹ 20 more rows
…
