Assumptions & Diagnostics More random effects
…
```
##  [1] "id"               "emot_dysreg"      "crq"              "age"             
##  [5] "int"              "schoolid"         "cooksd"           "mdffits"         
##  [9] "covtrace"         "covratio"         "leverage.overall"
```

```r
infl1
```

```
## # A tibble: 174 × 11
##       id emot_dysreg   crq   age int       schoolid     cooksd    mdffits covtrace covra…¹ lever…²
##    <int>       <dbl> <dbl> <dbl> <fct>     <fct>         <dbl>      <dbl>    <dbl>   <dbl>   <dbl>
##  1     1        4.12  1.92    14 Treatment school1  0.0000660  0.0000659  0.000869    1.00   0.108
##  2     2        3.22  1.65    11 Treatment school1  0.00749    0.00734    0.0194      1.02   0.124
##  3     3        4.86  3.56    16 Treatment school1  0.0185     0.0180     0.0252      1.03   0.129
##  4     4        4.79  1.45    16 Treatment school1  0.0000195  0.0000192  0.0169      1.02   0.122
##  5     5        3.58  0.81    12 Treatment school1  0.00692    0.00679    0.0185      1.02   0.123
##  6     6        4.41  2.71    15 Treatment school1  0.00000410 0.00000407 0.00601     1.01   0.112
##  7     7        4.23  3.01    14 Treatment school1  0.00104    0.00104    0.00620     1.01   0.112
##  8     8        3.66  1.61    12 Treatment school1  0.000102   0.000101   0.00897     1.01   0.115
##  9     9        4.22  2.17    14 Treatment school1  0.00000750 0.00000750 0.000568    1.00   0.107
## 10    10        4.42  2.28    14 Treatment school2  0.000254   0.000253   0.00466     1.00   0.124
## # … with 164 more rows, and abbreviated variable names ¹​covratio, ²​leverage.overall
## # ℹ Use `print(n = ...)` to see more rows
```
…
