The Multilevel Model
…
---
# eg2: Plotting Fits
#### **broom.mixed::augment()** for cluster-specific fits

.pull-left[

```r
library(broom.mixed)
augment(EDSmodel)
```

```
## # A tibble: 174 × 14
##      EDS   CRQ schoolid .fitted    .resid   .hat  .cooksd .fixed   .mu .offset .sqrtXwt .sqrtrwt .weights
##    <dbl> <dbl> <fct>      <dbl>     <dbl>  <dbl>    <dbl>  <dbl> <dbl>   <dbl>    <dbl>    <dbl>    <dbl>
##  1  4.12  1.92 school1     4.13 -0.00685  0.0930  1.11e-5   4.34  4.13       0        1        1        1
##  2  3.22  1.65 school1     4.10 -0.881    0.107   2.18e-1   4.35  4.10       0        1        1        1
##  3  4.86  3.56 school1     4.28  0.577    0.180   1.86e-1   4.25  4.28       0        1        1        1
##  4  4.79  1.45 school1     4.08  0.708    0.123   1.68e-1   4.36  4.08       0        1        1        1
##  5  3.58  0.81 school1     4.02 -0.441    0.203   1.30e-1   4.40  4.02       0        1        1        1
##  6  4.41  2.71 school1     4.20  0.208    0.0977  1.08e-2   4.30  4.20       0        1        1        1
##  7  4.23  3.01 school1     4.23 -0.000425 0.118   5.69e-8   4.28  4.23       0        1        1        1
##  8  3.66  1.61 school1     4.10 -0.437    0.110   5.56e-2   4.35  4.10       0        1        1        1
##  9  4.22  2.17 school1     4.15  0.0694   0.0870  1.05e-3   4.33  4.15       0        1        1        1
## 10  4.42  2.28 school2     4.08  0.337    0.101   2.95e-2   4.32  4.08       0        1        1        1
## # ℹ 164 more rows
## # ℹ 1 more variable: .wtres <dbl>
```
…
---
count: false
# eg2: Plotting Fits
#### **broom.mixed::augment()** for cluster-specific fits

.pull-left[

```r
library(broom.mixed)
augment(EDSmodel)
```

```
## # A tibble: 174 × 14
##      EDS   CRQ schoolid .fitted    .resid   .hat  .cooksd .fixed   .mu .offset .sqrtXwt .sqrtrwt .weights
##    <dbl> <dbl> <fct>      <dbl>     <dbl>  <dbl>    <dbl>  <dbl> <dbl>   <dbl>    <dbl>    <dbl>    <dbl>
##  1  4.12  1.92 school1     4.13 -0.00685  0.0930  1.11e-5   4.34  4.13       0        1        1        1
##  2  3.22  1.65 school1     4.10 -0.881    0.107   2.18e-1   4.35  4.10       0        1        1        1
##  3  4.86  3.56 school1     4.28  0.577    0.180   1.86e-1   4.25  4.28       0        1        1        1
##  4  4.79  1.45 school1     4.08  0.708    0.123   1.68e-1   4.36  4.08       0        1        1        1
##  5  3.58  0.81 school1     4.02 -0.441    0.203   1.30e-1   4.40  4.02       0        1        1        1
##  6  4.41  2.71 school1     4.20  0.208    0.0977  1.08e-2   4.30  4.20       0        1        1        1
##  7  4.23  3.01 school1     4.23 -0.000425 0.118   5.69e-8   4.28  4.23       0        1        1        1
##  8  3.66  1.61 school1     4.10 -0.437    0.110   5.56e-2   4.35  4.10       0        1        1        1
##  9  4.22  2.17 school1     4.15  0.0694   0.0870  1.05e-3   4.33  4.15       0        1        1        1
## 10  4.42  2.28 school2     4.08  0.337    0.101   2.95e-2   4.32  4.08       0        1        1        1
## # ℹ 164 more rows
## # ℹ 1 more variable: .wtres <dbl>
```
…
