Assumptions & Diagnostics
…
```
##  [1] "id"               "ACE"              "visit"            "condition"       
##  [5] "ppt"              "cooksd"           "mdffits"          "covtrace"        
##  [9] "covratio"         "leverage.overall"
```

```r
infl1
```

```
## # A tibble: 177 × 10
##       id   ACE visit condition ppt      cooksd   mdffits covtrace covratio leverage.overall
##    <int> <dbl> <dbl> <fct>     <fct>     <dbl>     <dbl>    <dbl>    <dbl>            <dbl>
##  1     1  84.5     1 control   PPT_1 0.0119    0.0116    0.0221       1.02           0.203 
##  2     2  85.6     2 control   PPT_1 0.0164    0.0162    0.0145       1.01           0.149 
##  3     3  84.5     3 control   PPT_1 0.00158   0.00156   0.00901      1.01           0.111 
##  4     4  83.1     4 control   PPT_1 0.00138   0.00137   0.00508      1.01           0.0898
##  5     5  82.3     5 control   PPT_1 0.00160   0.00159   0.00239      1.00           0.0853
##  6     6  83.3     6 control   PPT_1 0.000482  0.000482  0.000765     1.00           0.0974
##  7     7  80.9     7 control   PPT_1 0.000227  0.000227  0.000150     1.00           0.126 
##  8     8  81.9     8 control   PPT_1 0.000112  0.000112  0.000619     1.00           0.171 
##  9     9  81.5     9 control   PPT_1 0.000804  0.000802  0.00239      1.00           0.233 
## 10    10  80.4    10 control   PPT_1 0.0000561 0.0000558 0.00595      1.01           0.312 
## # ℹ 167 more rows
```
…
