Multilevel Models
…
---
# MLM Example: Plotting the model
#### **broom.mixed::augment()** for cluster-specific fits

.pull-left[

```r
library(broom.mixed)
augment(cogtime_model)
```

```
## # A tibble: 200 × 14
##      cog visit_n participant .fitted  .resid   .hat  .cooksd .fixed   .mu .offset
##    <dbl>   <dbl> <fct>         <dbl>   <dbl>  <dbl>    <dbl>  <dbl> <dbl>   <dbl>
##  1  56.1       1 1              69.7 -13.6   0.0782 0.225      67.3  69.7       0
##  2  71.5       2 1              69.6   1.93  0.0684 0.00386    66.1  69.6       0
##  3  68.9       3 1              69.5  -0.611 0.0653 0.000369   64.9  69.5       0
##  4  73.0       4 1              69.3   3.62  0.0690 0.0138     63.7  69.3       0
##  5  59.4       5 1              69.2  -9.79  0.0793 0.118      62.5  69.2       0
##  6  76.4       6 1              69.1   7.32  0.0964 0.0833     61.2  69.1       0
##  7  72.1       7 1              69.0   3.16  0.120  0.0204     60.0  69.0       0
##  8  64.2       8 1              68.8  -4.64  0.151  0.0594     58.8  68.8       0
##  9  74.3       9 1              68.7   5.65  0.188  0.120      57.6  68.7       0
## 10  69.7      10 1              68.6   1.16  0.232  0.00695    56.4  68.6       0
## # … with 190 more rows, and 4 more variables: .sqrtXwt <dbl>, .sqrtrwt <dbl>,
## #   .weights <dbl>, .wtres <dbl>
```
…
