DAPR3 - Multilevel Models
…
Correlation of Fixed Effects:
            (Intr)
outdoor_tim -0.463

Question 2

Sometimes the easiest way to start understanding your model is to visualise it.

Load the package broom.mixed. Along with some handy functions tidy() and glance() which give us the information we see in summary(), there is a handy function called augment() which returns us the data in the model plus the fitted values, residuals, hat values, Cook’s D etc..

ri_model <- lmer(wellbeing ~ outdoor_time + (1 | laa), data = scotmw)
library(broom.mixed)
augment(ri_model)

# A tibble: 132 × 14
   wellbeing outdoor_t…¹ laa   .fitted .resid  .hat .cooksd .fixed   .mu .offset
       <dbl>       <dbl> <fct>   <dbl>  <dbl> <dbl>   <dbl>  <dbl> <dbl>   <dbl>
 1        37          20 West…    32.4  4.64  0.139 7.91e-2   42.5  32.4       0
 2        34          23 Falk…    31.7  2.28  0.192 3.00e-2   43.1  31.7       0
 3        39          29 Falk…    33.0  6.00  0.195 2.13e-1   44.4  33.0       0
 4        42          21 Scot…    40.1  1.95  0.163 1.74e-2   42.7  40.1       0
 5        37          10 Dumf…    37.4 -0.407 0.167 7.84e-4   40.3  37.4       0
 6        42          19 Argy…    43.9 -1.91  0.122 1.12e-2   42.2  43.9       0
 7        38          13 Pert…    46.1 -8.06  0.139 2.39e-1   41.0  46.1       0
 8        44          21 East…    44.4 -0.414 0.168 8.17e-4   42.7  44.4       0
 9        47          16 Inve…    42.7  4.30  0.193 1.07e-1   41.6  42.7       0
10        35          12 Midl…    33.1  1.94  0.161 1.69e-2   40.8  33.1       0
# … with 122 more rows, 4 more variables: .sqrtXwt <dbl>, .sqrtrwt <dbl>,
#   .weights <dbl>, .wtres <dbl>, and abbreviated variable name ¹​outdoor_time
…
