DAPR3 - 3. Assumptions and Diagnostics | Centering
…
Greatest influence:

hlm_augment(rs_model, level=1) %>% arrange(desc(cooksd))

# A tibble: 132 × 15
      id wellbeing outdoor_time laa          .resid .fitted .ls.resid .ls.fitted
   <dbl>     <dbl>        <dbl> <fct>         <dbl>   <dbl>     <dbl>      <dbl>
 1    74        35           33 Scottish Bo…  -5.15    40.2    -3.73        38.7
 2   129        60            5 City of Edi…   8.89    51.1     6.43        53.6
 3   109        31            8 Inverclyde    -9.22    40.2    -3.03        34.0
 4    59        32            7 Scottish Bo…  -6.43    38.4    -7.45        39.5
 5    31        35            7 Moray         -3.44    38.4     0.198       34.8
 6    90        70           34 Na h-Eilean…  -3.16    73.2    -1.19        71.2
 7    87        54           29 Highland      -5.33    59.3    -5.66        59.7
 8    62        26           21 Midlothian    -4.77    30.8     0.214       25.8
 9    67        37            7 East Ayrshi…   4.58    32.4     4.62        32.4
10    64        46           18 City of Edi… -10.5     56.5   -10.1         56.1
# ℹ 122 more rows
# ℹ 7 more variables: .mar.resid <dbl>, .mar.fitted <dbl>, cooksd <dbl>,
#   mdffits <dbl>, covtrace <dbl>, covratio <dbl>, leverage.overall <dbl>
…
Highest residual:

hlm_augment(rs_model, level=1) %>% arrange(desc(abs(.resid)))

# A tibble: 132 × 15
      id wellbeing outdoor_time laa          .resid .fitted .ls.resid .ls.fitted
   <dbl>     <dbl>        <dbl> <fct>         <dbl>   <dbl>     <dbl>      <dbl>
 1    64        46           18 City of Edi… -10.5     56.5    -10.1        56.1
 2   107        22           12 East Ayrshi… -10.3     32.3    -10.1        32.1
 3    72        22           24 West Lothian -10.0     32.0     -9.24       31.2
 4   109        31            8 Inverclyde    -9.22    40.2     -3.03       34.0
 5   130        22           16 West Dunbar…  -8.98    31.0     -8.61       30.6
 6   129        60            5 City of Edi…   8.89    51.1      6.43       53.6
 7    93        65           18 City of Edi…   8.51    56.5      8.90       56.1
 8    85        47           15 City of Edi…  -8.25    55.2     -8.52       55.5
 9     7        38           13 Perth and K…  -7.84    45.8     -5.28       43.3
10   121        31           16 Dumfries an…  -7.78    38.8     -7.70       38.7
# ℹ 122 more rows
# ℹ 7 more variables: .mar.resid <dbl>, .mar.fitted <dbl>, cooksd <dbl>,
#   mdffits <dbl>, covtrace <dbl>, covratio <dbl>, leverage.overall <dbl>
…
