DAPR3 Lab Exercises - Week 2 Exercises: Introducing MLM
…
Solution

Here’s our model, with a random intercept by toy-type:

library(lme4)
library(broom.mixed)

mod2 <- lmer(R_AGE ~ 1 + hrs_week + (1 | toy_type), data = toy2)

We can use augment() from the broom.mixed package, and which gives us the variables in the model along with things like fitted values (in the .fitted column)

augment(mod2)

# A tibble: 129 × 14
  R_AGE hrs_week toy_type .fitted  .resid  .hat  .cooksd .fixed   .mu .offset
  <dbl>    <dbl> <fct>      <dbl>   <dbl> <dbl>    <dbl>  <dbl> <dbl>   <dbl>
1     8     4.04 Barbie      7.43  0.574  0.158 0.0144     7.14  7.43       0
2     6     2.36 Barbie      6.23 -0.229  0.183 0.00282    5.94  6.23       0
3     8     4.02 Barbie      7.41  0.587  0.158 0.0151     7.12  7.41       0
4     8     4.97 Barbie      8.09 -0.0855 0.170 0.000354   7.80  8.09       0
5     6     3.37 Barbie      6.95 -0.950  0.161 0.0404     6.66  6.95       0
# ℹ 124 more rows
# ℹ 4 more variables: .sqrtXwt <dbl>, .sqrtrwt <dbl>, .weights <dbl>,
#   .wtres <dbl>
…
Which is essentially the same as asking:

unique(efdat$PID) |> length()

[1] 30

3 - how many observations per ppt?

Here are the counts of trials for each participant.

efdat |> 
  count(PID)

# A tibble: 30 × 2
  PID        n
  <chr>  <int>
1 PPT_01    13
2 PPT_02    12
3 PPT_03    10
4 PPT_04    10
5 PPT_05    10
# ℹ 25 more rows
…
