DAPR3 - Week 4 Exercises: Nested and Crossed
…
We can make it long by taking the all the columns from visit_0 to visit_4 and shoving their values into one variable, and keeping the name of the column they come from as another variable:

geduc |> 
  pivot_longer(2:last_col(), names_to="visit",values_to="GAD")

# A tibble: 2,600 × 3
   patient      visit     GAD
   <chr>        <chr>   <dbl>
 1 OT_Control_1 visit_0    26
 2 OT_Control_1 visit_1    27
 3 OT_Control_1 visit_2    27
 4 OT_Control_1 visit_3    27
 5 OT_Control_1 visit_4    27
 6 OT_Control_2 visit_0    25
 7 OT_Control_2 visit_1    24
 8 OT_Control_2 visit_2    27
 9 OT_Control_2 visit_3    26
10 OT_Control_2 visit_4    25
# ℹ 2,590 more rows

2 - time is numeric

Now we know how to get our data long, we need to sort out our time variable (visit) and make it into numbers.

We can replace all occurrences of the string "visit_" with nothingness "", and then convert them to numeric.

geduc |> 
  pivot_longer(2:last_col(), names_to="visit",values_to="GAD") |>
  mutate(
    visit = as.numeric(gsub("visit_","",visit))
  ) 

# A tibble: 2,600 × 3
   patient      visit   GAD
   <chr>        <dbl> <dbl>
 1 OT_Control_1     0    26
 2 OT_Control_1     1    27
 3 OT_Control_1     2    27
 4 OT_Control_1     3    27
 5 OT_Control_1     4    27
 6 OT_Control_2     0    25
 7 OT_Control_2     1    24
 8 OT_Control_2     2    27
 9 OT_Control_2     3    26
10 OT_Control_2     4    25
# ℹ 2,590 more rows
…
The separate() function takes a column and separates it into several things (as many things as we give it), splitting them by some user defined separator such as an underscore:

geduc_long <- geduc |> 
  pivot_longer(2:last_col(), names_to="visit",values_to="GAD") |>
  mutate(
    visit = as.numeric(gsub("visit_","",visit))
  ) |>
  separate(patient, into=c("therapist","group","patient"), sep="_")

And we’re ready to go!

geduc_long

# A tibble: 2,600 × 5
   therapist group   patient visit   GAD
   <chr>     <chr>   <chr>   <dbl> <dbl>
 1 OT        Control 1           0    26
 2 OT        Control 1           1    27
 3 OT        Control 1           2    27
 4 OT        Control 1           3    27
 5 OT        Control 1           4    27
 6 OT        Control 2           0    25
 7 OT        Control 2           1    24
 8 OT        Control 2           2    27
 9 OT        Control 2           3    26
10 OT        Control 2           4    25
# ℹ 2,590 more rows
…
