DAPR3 - Introducing Multilevel Models
…
Correlation of Fixed Effects:
         (Intr)
hrs_week -0.654

Question A4

Sometimes the easiest way to start understanding your model is to visualise it.

Load the package broom.mixed. Along with some handy functions tidy() and glance() which give us the information we see in summary(), there is a handy function called augment() which returns us the data in the model plus the fitted values, residuals, hat values, Cook’s D etc..

ri_model <- lmer(R_AGE ~ hrs_week + (1 | toy_type), data = toys_read)
library(broom.mixed)
augment(ri_model)

# A tibble: 132 × 14
   R_AGE hrs_week toy_type   .fitted  .resid  .hat .cooksd .fixed    .mu .offset
   <dbl>    <dbl> <fct>        <dbl>   <dbl> <dbl>   <dbl>  <dbl>  <dbl>   <dbl>
 1  9.31     3.84 Furby       10.0   -0.701  0.122 7.75e-3   6.06 10.0         0
 2 12.2      4.88 Toy Story   12.1    0.105  0.142 2.14e-4   7.26 12.1         0
 3  8.08     3.48 Stretch A…   6.02   2.06   0.192 1.25e-1   5.64  6.02        0
 4  9.08     3.68 Peppa Pig    6.05   3.03   0.126 1.52e-1   5.87  6.05        0
 5  2.07     2.96 Lego Mini…   0.621  1.45   0.146 4.20e-2   5.04  0.621       0
 6 10.2      3.71 G.I.Joe     11.9   -1.67   0.122 4.41e-2   5.91 11.9         0
 7  8.05     3.73 Minecraft    7.97   0.0730 0.139 9.96e-5   5.94  7.97        0
 8 11.6      4.59 Polly Poc…   9.99   1.60   0.172 6.42e-2   6.92  9.99        0
 9 12.3      4.01 Star Wars   11.2    1.13   0.140 2.40e-2   6.25 11.2         0
10  5.06     4.37 Sock Pupp…   4.89   0.171  0.163 6.78e-4   6.67  4.89        0
# … with 122 more rows, and 4 more variables: .sqrtXwt <dbl>, .sqrtrwt <dbl>,
#   .weights <dbl>, .wtres <dbl>
…
