DAPR3 - Assumptions, Diagnostics, and Random Effect Structures
…
Greatest influence:

hlm_augment(rs_model, level=1) %>% arrange(desc(cooksd))

# A tibble: 132 × 15
      id wellbeing outdoo…¹ laa   .resid .fitted .ls.r…² .ls.f…³ .mar.…⁴ .mar.…⁵
   <dbl>     <dbl>    <dbl> <fct>  <dbl>   <dbl>   <dbl>   <dbl>   <dbl>   <dbl>
 1    74        35       33 Scot…  -5.15    40.2  -3.73     38.7  -10.3     45.3
 2   129        60        5 City…   8.89    51.1   6.43     53.6   20.7     39.3
 3   109        31        8 Inve…  -9.22    40.2  -3.03     34.0   -8.94    39.9
 4    59        32        7 Scot…  -6.43    38.4  -7.45     39.5   -7.73    39.7
 5    31        35        7 Moray  -3.44    38.4   0.198    34.8   -4.73    39.7
 6    90        70       34 Na h…  -3.16    73.2  -1.19     71.2   24.5     45.5
 7    87        54       29 High…  -5.33    59.3  -5.66     59.7    9.55    44.4
 8    62        26       21 Midl…  -4.77    30.8   0.214    25.8  -16.7     42.7
 9    67        37        7 East…   4.58    32.4   4.62     32.4   -2.73    39.7
10    64        46       18 City… -10.5     56.5 -10.1      56.1    3.91    42.1
# … with 122 more rows, 5 more variables: cooksd <dbl>, mdffits <dbl>,
#   covtrace <dbl>, covratio <dbl>, leverage.overall <dbl>, and abbreviated
#   variable names ¹​outdoor_time, ²​.ls.resid, ³​.ls.fitted, ⁴​.mar.resid,
#   ⁵​.mar.fitted
# ℹ Use `print(n = ...)` to see more rows, and `colnames()` to see all variable names
…
Highest residual:

hlm_augment(rs_model, level=1) %>% arrange(desc(abs(.resid)))

# A tibble: 132 × 15
      id wellbeing outdoo…¹ laa   .resid .fitted .ls.r…² .ls.f…³ .mar.…⁴ .mar.…⁵
   <dbl>     <dbl>    <dbl> <fct>  <dbl>   <dbl>   <dbl>   <dbl>   <dbl>   <dbl>
 1    64        46       18 City… -10.5     56.5  -10.1     56.1    3.91    42.1
 2   107        22       12 East… -10.3     32.3  -10.1     32.1  -18.8     40.8
 3    72        22       24 West… -10.0     32.0   -9.24    31.2  -21.4     43.4
 4   109        31        8 Inve…  -9.22    40.2   -3.03    34.0   -8.94    39.9
 5   130        22       16 West…  -8.98    31.0   -8.61    30.6  -19.7     41.7
 6   129        60        5 City…   8.89    51.1    6.43    53.6   20.7     39.3
 7    93        65       18 City…   8.51    56.5    8.90    56.1   22.9     42.1
 8    85        47       15 City…  -8.25    55.2   -8.52    55.5    5.56    41.4
 9     7        38       13 Pert…  -7.84    45.8   -5.28    43.3   -3.01    41.0
10   121        31       16 Dumf…  -7.78    38.8   -7.70    38.7  -10.7     41.7
# … with 122 more rows, 5 more variables: cooksd <dbl>, mdffits <dbl>,
#   covtrace <dbl>, covratio <dbl>, leverage.overall <dbl>, and abbreviated
#   variable names ¹​outdoor_time, ²​.ls.resid, ³​.ls.fitted, ⁴​.mar.resid,
#   ⁵​.mar.fitted
# ℹ Use `print(n = ...)` to see more rows, and `colnames()` to see all variable names
…
