DAPR3 - Centering in MLM | Logistic MLM
…
Group Centering

Returning to the Hangry Hypothesis study, let’s think about our continuous predictor: the level of hunger. It has a mean:

mean(hangry$q_hunger)

[1] 47.37037

But it also has a mean for each participant:

hangry %>% group_by(ppt) %>%
    summarise(mean_hunger = mean(q_hunger))

# A tibble: 81 × 2
   ppt   mean_hunger
   <chr>       <dbl>
 1 N1p1         26.6
 2 N1p10        66.2
 3 N1p11        80.8
 4 N1p12        78.8
 5 N1p2         32.6
 6 N1p3         43.2
 7 N1p4         46.6
 8 N1p5         52.6
 9 N1p6         53.4
10 N1p7         63  
# … with 71 more rows
…
