DAPR3 - Analysis Example: Exploratory Factor Analysis
…
Sanity Checks

Produce a table of summary statistics for the variables in the data.

Code

df %>%
    summarise(across(everything(), 
                     list(M = mean, SD = sd, MIN = min, MAX = max))) %>%
    pivot_longer(everything())

# A tibble: 268 × 2
   name          value
   <chr>         <dbl>
 1 job_yrs_M     4.03 
 2 job_yrs_SD    5.86 
 3 job_yrs_MIN  -1    
 4 job_yrs_MAX  37    
 5 job_mths_M   NA    
 6 job_mths_SD  NA    
 7 job_mths_MIN NA    
 8 job_mths_MAX NA    
 9 worktype_M    1.24 
10 worktype_SD   0.427
# … with 258 more rows
# ℹ Use `print(n = ...)` to see more rows
…
