DAPR3 - Analysis Example 3: Many trials
…
df1 <- 
  df1 %>%
  mutate(
    c.size = recode(current_size, 6, 8, 10, 12, 14, 16),
    i.size = recode(ideal_size,  6, 8, 10, 12, 14, 16)
  )

Always sensible to check our changes:

Code

df1 %>%
  select(current_size, ideal_size, c.size, i.size)

# A tibble: 120 × 4
   current_size ideal_size c.size i.size
          <dbl>      <dbl>  <dbl>  <dbl>
 1            3          2     10      8
 2            1          1      6      6
 3            2          1      8      6
 4            2          1      8      6
 5            3          2     10      8
 6            4          3     12     10
 7            3          2     10      8
 8            2          2      8      8
 9            5          3     14     10
10            3          2     10      8
# … with 110 more rows
# ℹ Use `print(n = ...)` to see more rows
…
At this point, our next big step is to make the data long. But I am also going to make this a little more manageable by trimming out the variables we do not need. We want ID and age, gender is constant (all female sample), so we do not need this, and then we want the variables we have just created.

Code

df2 <- 
  df1 %>%
  select(response_id, age, 99:120)

df2

# A tibble: 120 × 24
   response_id   age tii_s…¹ ma_sc…² c.size i.size top_S6 top_S8 top_S10 top_S12
   <chr>       <dbl>   <dbl>   <dbl>  <dbl>  <dbl>  <dbl>  <dbl>   <dbl>   <dbl>
 1 P_ID1001       22    2.63    1.78     10      8  20.7    16.3    21.7   20   
 2 P_ID1002       20    3       2.44      6      6   7.67   12.3    10     17.3 
 3 P_ID1003       21    2.6     1.78      8      6  16.7    10.3     9     11.7 
 4 P_ID1004       21    2.27    1.78      8      6  23.3    20      18.3   23.3 
 5 P_ID1005       23    2.87    2.56     10      8   6.33   10.7    11      8.33
 6 P_ID1006       43    2.73    2.22     12     10  28.3    25      41.7   30   
 7 P_ID1007       55    2.93    1.89     10      8  23.3    28.3    23.3   23.3 
 8 P_ID1008       20    3.03    2.11      8      8  21.3    20.7    19     23   
 9 P_ID1009       48    2.7     2.89     14     10  45.7    20.3    26.7   57   
10 P_ID1010       21    2.37    2        10      8  15.3    16.7    18.3   13.3 
# … with 110 more rows, 14 more variables: top_S14 <dbl>, top_S16 <dbl>,
#   bottom_S6 <dbl>, bottom_S8 <dbl>, bottom_S10 <dbl>, bottom_S12 <dbl>,
#   bottom_S14 <dbl>, bottom_S16 <dbl>, dress_S6 <dbl>, dress_S8 <dbl>,
#   dress_S10 <dbl>, dress_S12 <dbl>, dress_S14 <dbl>, dress_S16 <dbl>, and
#   abbreviated variable names ¹​tii_score, ²​ma_score
# ℹ Use `print(n = ...)` to see more rows, and `colnames()` to see all variable names

OK, now we need to get the data from wide to long format.

Code

df_long <- 
  df2 %>%
  pivot_longer(top_S6:dress_S16, names_to = "garment",values_to = "price")

df_long

# A tibble: 2,160 × 8
   response_id   age tii_score ma_score c.size i.size garment    price
   <chr>       <dbl>     <dbl>    <dbl>  <dbl>  <dbl> <chr>      <dbl>
 1 P_ID1001       22      2.63     1.78     10      8 top_S6      20.7
 2 P_ID1001       22      2.63     1.78     10      8 top_S8      16.3
 3 P_ID1001       22      2.63     1.78     10      8 top_S10     21.7
 4 P_ID1001       22      2.63     1.78     10      8 top_S12     20  
 5 P_ID1001       22      2.63     1.78     10      8 top_S14     15.3
 6 P_ID1001       22      2.63     1.78     10      8 top_S16     17  
 7 P_ID1001       22      2.63     1.78     10      8 bottom_S6   21.7
 8 P_ID1001       22      2.63     1.78     10      8 bottom_S8   18  
 9 P_ID1001       22      2.63     1.78     10      8 bottom_S10  30  
10 P_ID1001       22      2.63     1.78     10      8 bottom_S12  20  
# … with 2,150 more rows
# ℹ Use `print(n = ...)` to see more rows
This looks good, but we now need to have variables that code for size and item type.

Code

df_analysis <- 
  df_long %>%
  separate(garment, c("item", "size"), "_S")

And check….

Code

df_analysis

# A tibble: 2,160 × 9
   response_id   age tii_score ma_score c.size i.size item   size  price
   <chr>       <dbl>     <dbl>    <dbl>  <dbl>  <dbl> <chr>  <chr> <dbl>
 1 P_ID1001       22      2.63     1.78     10      8 top    6      20.7
 2 P_ID1001       22      2.63     1.78     10      8 top    8      16.3
 3 P_ID1001       22      2.63     1.78     10      8 top    10     21.7
 4 P_ID1001       22      2.63     1.78     10      8 top    12     20  
 5 P_ID1001       22      2.63     1.78     10      8 top    14     15.3
 6 P_ID1001       22      2.63     1.78     10      8 top    16     17  
 7 P_ID1001       22      2.63     1.78     10      8 bottom 6      21.7
 8 P_ID1001       22      2.63     1.78     10      8 bottom 8      18  
 9 P_ID1001       22      2.63     1.78     10      8 bottom 10     30  
10 P_ID1001       22      2.63     1.78     10      8 bottom 12     20  
# … with 2,150 more rows
# ℹ Use `print(n = ...)` to see more rows
…
df_analysis[,c(1,5:11)]

# A tibble: 2,160 × 8
   response_id c.size i.size item   size[,1] price c.match i.match
   <chr>        <dbl>  <dbl> <fct>     <dbl> <dbl> <fct>   <fct>  
 1 P_ID1001        10      8 top      -1.46   20.7 0       0      
 2 P_ID1001        10      8 top      -0.878  16.3 0       1      
 3 P_ID1001        10      8 top      -0.293  21.7 1       0      
 4 P_ID1001        10      8 top       0.293  20   0       0      
 5 P_ID1001        10      8 top       0.878  15.3 0       0      
 6 P_ID1001        10      8 top       1.46   17   0       0      
 7 P_ID1001        10      8 bottom   -1.46   21.7 0       0      
 8 P_ID1001        10      8 bottom   -0.878  18   0       1      
 9 P_ID1001        10      8 bottom   -0.293  30   1       0      
10 P_ID1001        10      8 bottom    0.293  20   0       0      
# … with 2,150 more rows
# ℹ Use `print(n = ...)` to see more rows
…
