Describe group-structured data – DAPR3 Flashcards
…
# A tibble: 1 x 5
  mean_obs med_obs sd_obs max_obs min_obs
     <dbl>   <dbl>  <dbl>   <int>   <int>
1       20      20      0      20      20

For PID, we have exactly 20 observations for each participant, with no variation, so this isn’t so interesting to report. If there is variation, then these numbers will be a bit more variable. But note that not all of these summary stats will always be interesting or useful to report—use your judgement about what helps you tell your story.

How old is each person?

ngv |>
  select(PID, age) |>  # keep only the columns PID and age
  distinct()           # drop duplicated rows, keeping only one instance of each

# A tibble: 76 x 2
   PID      age
   <chr>  <dbl>
 1 ppt_1     47
 2 ppt_10    46
 3 ppt_11    21
 4 ppt_12    37
 5 ppt_13    41
 6 ppt_14    48
 7 ppt_15    26
 8 ppt_16    47
 9 ppt_17    18
10 ppt_18    36
# i 66 more rows
…
