Identify grouping variables – DAPR3 Flashcards
…
In the starwars dataset, is species a grouping variable?

starwars |>
  group_by(species) |>
  count()

# A tibble: 38 × 2
# Groups:   species [38]
   species       n
   <chr>     <int>
 1 Aleena        1
 2 Besalisk      1
 3 Cerean        1
 4 Chagrian      1
 5 Clawdite      1
 6 Droid         6
 7 Dug           1
 8 Ewok          1
 9 Geonosian     1
10 Gungan        3
# ℹ 28 more rows
…
