Identify possible random effects – DAPR3 Flashcards
…
2. Grouping variables

The grouping variables are

ppt (categorical)

time (categorical)

group (categorical)

# ppt:
stress |> group_by(ppt) |> count()

# A tibble: 50 x 2
# Groups:   ppt [50]
   ppt       n
   <chr> <int>
 1 ID1       3
 2 ID10      3
 3 ID11      3
 4 ID12      3
 5 ID13      3
 6 ID14      3
 7 ID15      3
 8 ID16      3
 9 ID17      3
10 ID18      3
# i 40 more rows
…
