R7: Questionnaire Data Wrangling – DAPR3 Lab Exercises
…
This is the most cumbersome way to do this logic as it requires multiple nested ifelse statements.

To ensure that anything that isn’t one of the 5 valid response options gets to be an NA, we have the final “else” specifying that if it’s none of the prespecified options, make it an NA

survdat |>
  mutate(
    q1 = ifelse(q1 == "Very Inaccurate", 1,
                ifelse(q1 == "Moderately Inaccurate", 2, 
                       ifelse( q1 == "Neither Accurate nor Inaccurate", 3, 
                               ifelse(q1 == "Moderately Accurate", 4, 
                                      ifelse(q1 == "Very Accurate", 5, NA)))))
  )

# A tibble: 76 × 53
     ppt   age height    q1 q2         q3    q4    q5    q6    q7    q8    q9   
   <dbl> <dbl>  <dbl> <dbl> <chr>      <chr> <chr> <chr> <chr> <chr> <chr> <chr>
 1     1    22    168     4 Very Inac… Mode… Mode… Neit… Mode… Mode… Mode… Mode…
 2     2    29    186     3 Moderatel… Mode… Neit… Mode… Mode… Mode… Mode… Neit…
 3     3    24     NA     1 Very Inac… Neit… Mode… Mode… Mode… Mode… Neit… Mode…
 4     4    26    175     1 Moderatel… Mode… Mode… Very… Mode… Mode… Mode… Mode…
 5     5    28    182     1 Very Inac… Neit… Mode… Mode… Very… Neit… Neit… Mode…
 6     6    27    159     4 Very Inac… Mode… Very… Very… Neit… Mode… Very… Neit…
 7     7    27    149     2 Very Inac… Mode… Very… Mode… Mode… Mode… Mode… Neit…
 8     8    23    178     2 Neither A… Very… Very… Neit… Neit… Mode… Very… Very…
 9     9    28    176     3 Moderatel… Very… Very… Very… Neit… Very… Neit… Neit…
10    10    26    192     3 Very Inac… Mode… Mode… Mode… Neit… Mode… Mode… Mode…
# ℹ 66 more rows
# ℹ 41 more variables: q10 <chr>, q11 <chr>, q12 <chr>, q13 <chr>, q14 <chr>,
#   q15 <chr>, q16 <chr>, q17 <chr>, q18 <chr>, q19 <chr>, q20 <chr>,
#   q21 <chr>, q22 <chr>, q23 <chr>, q24 <chr>, q25 <chr>, q26 <chr>,
#   q27 <chr>, q28 <chr>, q29 <chr>, q30 <chr>, q31 <chr>, q32 <chr>,
#   q33 <chr>, q34 <chr>, q35 <chr>, q36 <chr>, q37 <chr>, q38 <chr>,
#   q39 <chr>, q40 <chr>, q41 <chr>, q42 <chr>, q43 <chr>, q44 <chr>, …
…
case_when() follows this same logic as ifelse() but makes for easier reading (and writing). Each line is a statement saying “if [variable] is equal to [value], then return [new value]”. The final entry here TRUE ~ NA is a bit like saying “and if it is anything else, make it an NA”.

survdat |>
  mutate(
    q1 = case_when(
      q1 == "Very Inaccurate" ~ 1,
      q1 == "Moderately Inaccurate" ~ 2,
      q1 == "Neither Accurate nor Inaccurate" ~ 3,
      q1 == "Moderately Accurate" ~ 4,
      q1 == "Very Accurate" ~ 5,
      TRUE ~ NA
    )
  )

# A tibble: 76 × 53
     ppt   age height    q1 q2         q3    q4    q5    q6    q7    q8    q9   
   <dbl> <dbl>  <dbl> <dbl> <chr>      <chr> <chr> <chr> <chr> <chr> <chr> <chr>
 1     1    22    168     4 Very Inac… Mode… Mode… Neit… Mode… Mode… Mode… Mode…
 2     2    29    186     3 Moderatel… Mode… Neit… Mode… Mode… Mode… Mode… Neit…
 3     3    24     NA     1 Very Inac… Neit… Mode… Mode… Mode… Mode… Neit… Mode…
 4     4    26    175     1 Moderatel… Mode… Mode… Very… Mode… Mode… Mode… Mode…
 5     5    28    182     1 Very Inac… Neit… Mode… Mode… Very… Neit… Neit… Mode…
 6     6    27    159     4 Very Inac… Mode… Very… Very… Neit… Mode… Very… Neit…
 7     7    27    149     2 Very Inac… Mode… Very… Mode… Mode… Mode… Mode… Neit…
 8     8    23    178     2 Neither A… Very… Very… Neit… Neit… Mode… Very… Very…
 9     9    28    176     3 Moderatel… Very… Very… Very… Neit… Very… Neit… Neit…
10    10    26    192     3 Very Inac… Mode… Mode… Mode… Neit… Mode… Mode… Mode…
# ℹ 66 more rows
# ℹ 41 more variables: q10 <chr>, q11 <chr>, q12 <chr>, q13 <chr>, q14 <chr>,
#   q15 <chr>, q16 <chr>, q17 <chr>, q18 <chr>, q19 <chr>, q20 <chr>,
#   q21 <chr>, q22 <chr>, q23 <chr>, q24 <chr>, q25 <chr>, q26 <chr>,
#   q27 <chr>, q28 <chr>, q29 <chr>, q30 <chr>, q31 <chr>, q32 <chr>,
#   q33 <chr>, q34 <chr>, q35 <chr>, q36 <chr>, q37 <chr>, q38 <chr>,
#   q39 <chr>, q40 <chr>, q41 <chr>, q42 <chr>, q43 <chr>, q44 <chr>, …
…
The ifelse() and case_when() functions are much more generalised - we can say “if x is 1 make it 1, and if y is 2 make it 0, and if z is …”.

However, in the task at hand, all of our “if” questions apply to the value of the same variable. The case_match() function is perfectly designed for this:

survdat |> 
  mutate(
    q1 = case_match(q1, 
                "Very Inaccurate" ~ 1,
                "Moderately Inaccurate" ~ 2,
                "Neither Accurate nor Inaccurate" ~ 3,
                "Moderately Accurate" ~ 4,
                "Very Accurate" ~ 5)
  )

# A tibble: 76 × 53
     ppt   age height    q1 q2         q3    q4    q5    q6    q7    q8    q9   
   <dbl> <dbl>  <dbl> <dbl> <chr>      <chr> <chr> <chr> <chr> <chr> <chr> <chr>
 1     1    22    168     4 Very Inac… Mode… Mode… Neit… Mode… Mode… Mode… Mode…
 2     2    29    186     3 Moderatel… Mode… Neit… Mode… Mode… Mode… Mode… Neit…
 3     3    24     NA     1 Very Inac… Neit… Mode… Mode… Mode… Mode… Neit… Mode…
 4     4    26    175     1 Moderatel… Mode… Mode… Very… Mode… Mode… Mode… Mode…
 5     5    28    182     1 Very Inac… Neit… Mode… Mode… Very… Neit… Neit… Mode…
 6     6    27    159     4 Very Inac… Mode… Very… Very… Neit… Mode… Very… Neit…
 7     7    27    149     2 Very Inac… Mode… Very… Mode… Mode… Mode… Mode… Neit…
 8     8    23    178     2 Neither A… Very… Very… Neit… Neit… Mode… Very… Very…
 9     9    28    176     3 Moderatel… Very… Very… Very… Neit… Very… Neit… Neit…
10    10    26    192     3 Very Inac… Mode… Mode… Mode… Neit… Mode… Mode… Mode…
# ℹ 66 more rows
# ℹ 41 more variables: q10 <chr>, q11 <chr>, q12 <chr>, q13 <chr>, q14 <chr>,
#   q15 <chr>, q16 <chr>, q17 <chr>, q18 <chr>, q19 <chr>, q20 <chr>,
#   q21 <chr>, q22 <chr>, q23 <chr>, q24 <chr>, q25 <chr>, q26 <chr>,
#   q27 <chr>, q28 <chr>, q29 <chr>, q30 <chr>, q31 <chr>, q32 <chr>,
#   q33 <chr>, q34 <chr>, q35 <chr>, q36 <chr>, q37 <chr>, q38 <chr>,
#   q39 <chr>, q40 <chr>, q41 <chr>, q42 <chr>, q43 <chr>, q44 <chr>, …
…
Using this syntax, we can apply the recoding we have seen above, but do it for all of the variables from q1 to q50. All at once. like magic!

Note, we’re not summarising here (i.e. we’re not summarising down into a single value, we’re just wanting to mutate the existing variables):

survdat |> 
  mutate(across(q1:q50,
                ~case_match(., 
                "Very Inaccurate" ~ 1,
                "Moderately Inaccurate" ~ 2,
                "Neither Accurate nor Inaccurate" ~ 3,
                "Moderately Accurate" ~ 4,
                "Very Accurate" ~ 5)
  ))

# A tibble: 76 × 53
     ppt   age height    q1    q2    q3    q4    q5    q6    q7    q8    q9
   <dbl> <dbl>  <dbl> <dbl> <dbl> <dbl> <dbl> <dbl> <dbl> <dbl> <dbl> <dbl>
 1     1    22    168     4     1     4     4     3     2     4     4     4
 2     2    29    186     3     2     4     3     4     2     4     2     3
 3     3    24     NA     1     1     3     2     2     4     4     3     4
 4     4    26    175     1     2     4     4     5     2     4     4     2
 5     5    28    182     1     1     3     4     4     5     3     3     2
 6     6    27    159     4     1     2     1     1     3     4     1     3
 7     7    27    149     2     1     4     5     4     4     4     4     3
 8     8    23    178     2     3     5     5     3     3     2     1     1
 9     9    28    176     3     2     5     5     5     3     5     3     3
10    10    26    192     3     1     4     4     4     3     4     4     4
# ℹ 66 more rows
# ℹ 41 more variables: q10 <dbl>, q11 <dbl>, q12 <dbl>, q13 <dbl>, q14 <dbl>,
#   q15 <dbl>, q16 <dbl>, q17 <dbl>, q18 <dbl>, q19 <dbl>, q20 <dbl>,
#   q21 <dbl>, q22 <dbl>, q23 <dbl>, q24 <dbl>, q25 <dbl>, q26 <dbl>,
#   q27 <dbl>, q28 <dbl>, q29 <dbl>, q30 <dbl>, q31 <dbl>, q32 <dbl>,
#   q33 <dbl>, q34 <dbl>, q35 <dbl>, q36 <dbl>, q37 <dbl>, q38 <dbl>,
#   q39 <dbl>, q40 <dbl>, q41 <dbl>, q42 <dbl>, q43 <dbl>, q44 <dbl>, …
…
(it’s actually just convention that people use function(x). we could use function(kermit) mean(kermit, na.rm=TRUE) and it would still work!)

So how do we do the recoding of all our questions? We simply apply a function like case_match() to each column!

survdat[,4:53] <- apply(survdat[,4:53], MARGIN=2, FUN=function(x) 
  case_match(x, 
             "Very Inaccurate" ~ 1,
             "Moderately Inaccurate" ~ 2,
             "Neither Accurate nor Inaccurate" ~ 3,
             "Moderately Accurate" ~ 4,
             "Very Accurate" ~ 5)
  )
survdat

# A tibble: 76 × 53
     ppt   age height    q1    q2    q3    q4    q5    q6    q7    q8    q9
   <dbl> <dbl>  <dbl> <dbl> <dbl> <dbl> <dbl> <dbl> <dbl> <dbl> <dbl> <dbl>
 1     1    22    168     4     1     4     4     3     2     4     4     4
 2     2    29    186     3     2     4     3     4     2     4     2     3
 3     3    24     NA     1     1     3     2     2     4     4     3     4
 4     4    26    175     1     2     4     4     5     2     4     4     2
 5     5    28    182     1     1     3     4     4     5     3     3     2
 6     6    27    159     4     1     2     1     1     3     4     1     3
 7     7    27    149     2     1     4     5     4     4     4     4     3
 8     8    23    178     2     3     5     5     3     3     2     1     1
 9     9    28    176     3     2     5     5     5     3     5     3     3
10    10    26    192     3     1     4     4     4     3     4     4     4
# ℹ 66 more rows
# ℹ 41 more variables: q10 <dbl>, q11 <dbl>, q12 <dbl>, q13 <dbl>, q14 <dbl>,
#   q15 <dbl>, q16 <dbl>, q17 <dbl>, q18 <dbl>, q19 <dbl>, q20 <dbl>,
#   q21 <dbl>, q22 <dbl>, q23 <dbl>, q24 <dbl>, q25 <dbl>, q26 <dbl>,
#   q27 <dbl>, q28 <dbl>, q29 <dbl>, q30 <dbl>, q31 <dbl>, q32 <dbl>,
#   q33 <dbl>, q34 <dbl>, q35 <dbl>, q36 <dbl>, q37 <dbl>, q38 <dbl>,
#   q39 <dbl>, q40 <dbl>, q41 <dbl>, q42 <dbl>, q43 <dbl>, q44 <dbl>, …
…
How do we reverse? We want any value of 1 to become 5, any value of 2 to become 4, 3 stays 3, 4 becomes 2, and 5 becomes 1.

We can just subtract the value from 6!

6-c(1,2,3,4,5)

[1] 5 4 3 2 1

So to reverse code q6, we can simply subtract the variable from 6.

survdat |> 
  mutate(q6 = 6-q6)

# A tibble: 76 × 53
     ppt   age height    q1    q2    q3    q4    q5    q6    q7    q8    q9
   <dbl> <dbl>  <dbl> <dbl> <dbl> <dbl> <dbl> <dbl> <dbl> <dbl> <dbl> <dbl>
 1     1    22    168     4     1     4     4     3     4     4     4     4
 2     2    29    186     3     2     4     3     4     4     4     2     3
 3     3    24     NA     1     1     3     2     2     2     4     3     4
 4     4    26    175     1     2     4     4     5     4     4     4     2
 5     5    28    182     1     1     3     4     4     1     3     3     2
 6     6    27    159     4     1     2     1     1     3     4     1     3
 7     7    27    149     2     1     4     5     4     2     4     4     3
 8     8    23    178     2     3     5     5     3     3     2     1     1
 9     9    28    176     3     2     5     5     5     3     5     3     3
10    10    26    192     3     1     4     4     4     3     4     4     4
# ℹ 66 more rows
# ℹ 41 more variables: q10 <dbl>, q11 <dbl>, q12 <dbl>, q13 <dbl>, q14 <dbl>,
#   q15 <dbl>, q16 <dbl>, q17 <dbl>, q18 <dbl>, q19 <dbl>, q20 <dbl>,
#   q21 <dbl>, q22 <dbl>, q23 <dbl>, q24 <dbl>, q25 <dbl>, q26 <dbl>,
#   q27 <dbl>, q28 <dbl>, q29 <dbl>, q30 <dbl>, q31 <dbl>, q32 <dbl>,
#   q33 <dbl>, q34 <dbl>, q35 <dbl>, q36 <dbl>, q37 <dbl>, q38 <dbl>,
#   q39 <dbl>, q40 <dbl>, q41 <dbl>, q42 <dbl>, q43 <dbl>, q44 <dbl>, …
…
Let’s find a way to capture those. seq(2,38,2) will give us a sequence from 2 to 38 in steps of 2. So that gives us most of them. We can then just combine that with the other ones, and put “q” in front of each one to give us the variable names:

neg_items <- paste0("q", c(seq(2,38,2),39,44,46,49))
neg_items

 [1] "q2"  "q4"  "q6"  "q8"  "q10" "q12" "q14" "q16" "q18" "q20" "q22" "q24"
[13] "q26" "q28" "q30" "q32" "q34" "q36" "q38" "q39" "q44" "q46" "q49"

using across()

survdat |> 
  mutate(across(all_of(neg_items),~6-.))

# A tibble: 76 × 53
     ppt   age height    q1    q2    q3    q4    q5    q6    q7    q8    q9
   <dbl> <dbl>  <dbl> <dbl> <dbl> <dbl> <dbl> <dbl> <dbl> <dbl> <dbl> <dbl>
 1     1    22    168     4     5     4     2     3     4     4     2     4
 2     2    29    186     3     4     4     3     4     4     4     4     3
 3     3    24     NA     1     5     3     4     2     2     4     3     4
 4     4    26    175     1     4     4     2     5     4     4     2     2
 5     5    28    182     1     5     3     2     4     1     3     3     2
 6     6    27    159     4     5     2     5     1     3     4     5     3
 7     7    27    149     2     5     4     1     4     2     4     2     3
 8     8    23    178     2     3     5     1     3     3     2     5     1
 9     9    28    176     3     4     5     1     5     3     5     3     3
10    10    26    192     3     5     4     2     4     3     4     2     4
# ℹ 66 more rows
# ℹ 41 more variables: q10 <dbl>, q11 <dbl>, q12 <dbl>, q13 <dbl>, q14 <dbl>,
#   q15 <dbl>, q16 <dbl>, q17 <dbl>, q18 <dbl>, q19 <dbl>, q20 <dbl>,
#   q21 <dbl>, q22 <dbl>, q23 <dbl>, q24 <dbl>, q25 <dbl>, q26 <dbl>,
#   q27 <dbl>, q28 <dbl>, q29 <dbl>, q30 <dbl>, q31 <dbl>, q32 <dbl>,
#   q33 <dbl>, q34 <dbl>, q35 <dbl>, q36 <dbl>, q37 <dbl>, q38 <dbl>,
#   q39 <dbl>, q40 <dbl>, q41 <dbl>, q42 <dbl>, q43 <dbl>, q44 <dbl>, …

using apply()

survdat[,neg_items] <- apply(survdat[,neg_items], 2, function(x) 6-x)
survdat

# A tibble: 76 × 53
     ppt   age height    q1    q2    q3    q4    q5    q6    q7    q8    q9
   <dbl> <dbl>  <dbl> <dbl> <dbl> <dbl> <dbl> <dbl> <dbl> <dbl> <dbl> <dbl>
 1     1    22    168     4     5     4     2     3     4     4     2     4
 2     2    29    186     3     4     4     3     4     4     4     4     3
 3     3    24     NA     1     5     3     4     2     2     4     3     4
 4     4    26    175     1     4     4     2     5     4     4     2     2
 5     5    28    182     1     5     3     2     4     1     3     3     2
 6     6    27    159     4     5     2     5     1     3     4     5     3
 7     7    27    149     2     5     4     1     4     2     4     2     3
 8     8    23    178     2     3     5     1     3     3     2     5     1
 9     9    28    176     3     4     5     1     5     3     5     3     3
10    10    26    192     3     5     4     2     4     3     4     2     4
# ℹ 66 more rows
# ℹ 41 more variables: q10 <dbl>, q11 <dbl>, q12 <dbl>, q13 <dbl>, q14 <dbl>,
#   q15 <dbl>, q16 <dbl>, q17 <dbl>, q18 <dbl>, q19 <dbl>, q20 <dbl>,
#   q21 <dbl>, q22 <dbl>, q23 <dbl>, q24 <dbl>, q25 <dbl>, q26 <dbl>,
#   q27 <dbl>, q28 <dbl>, q29 <dbl>, q30 <dbl>, q31 <dbl>, q32 <dbl>,
#   q33 <dbl>, q34 <dbl>, q35 <dbl>, q36 <dbl>, q37 <dbl>, q38 <dbl>,
#   q39 <dbl>, q40 <dbl>, q41 <dbl>, q42 <dbl>, q43 <dbl>, q44 <dbl>, …
…
 [1] 0 0 0 0 0 0 0 0 0 0 1 0 0 0 1 0 0 0 0 0 0 0 0 0 0 0 0 0 0 1 0 0 0 0 0 0 0 0
[39] 0 0 0 0 0 0 0 0 0 1 0 0 0 0 0 0 0 0 0 0 0 0 0 0 0 0 0 0 0 0 0 0 0 0 0 0 0 0

Occasionally, you might find that you want to do row-wise operations that don’t have easy functions like rowSums. In these cases, the tidyverse function rowwise() can be useful in that it applies an operation to one row at a time:

survdat |> 
  rowwise() |>
  mutate(
    # find the minimum score given for each row
    maxscore = min(across(q1:q50)), 
    # put the column after the height column
    .after = height
  )

# A tibble: 76 × 59
# Rowwise: 
     ppt   age height maxscore    q1    q2    q3    q4    q5    q6    q7    q8
   <dbl> <dbl>  <dbl>    <dbl> <dbl> <dbl> <dbl> <dbl> <dbl> <dbl> <dbl> <dbl>
 1     1    22    168        1     4     5     4     2     3     4     4     2
 2     2    29    186        2     3     4     4     3     4     4     4     4
 3     3    24     NA        1     1     5     3     4     2     2     4     3
 4     4    26    175        1     1     4     4     2     5     4     4     2
 5     5    28    182        1     1     5     3     2     4     1     3     3
 6     6    27    159        1     4     5     2     5     1     3     4     5
 7     7    27    149        1     2     5     4     1     4     2     4     2
 8     8    23    178        1     2     3     5     1     3     3     2     5
 9     9    28    176        1     3     4     5     1     5     3     5     3
10    10    26    192        1     3     5     4     2     4     3     4     2
# ℹ 66 more rows
# ℹ 47 more variables: q9 <dbl>, q10 <dbl>, q11 <dbl>, q12 <dbl>, q13 <dbl>,
#   q14 <dbl>, q15 <dbl>, q16 <dbl>, q17 <dbl>, q18 <dbl>, q19 <dbl>,
#   q20 <dbl>, q21 <dbl>, q22 <dbl>, q23 <dbl>, q24 <dbl>, q25 <dbl>,
#   q26 <dbl>, q27 <dbl>, q28 <dbl>, q29 <dbl>, q30 <dbl>, q31 <dbl>,
#   q32 <dbl>, q33 <dbl>, q34 <dbl>, q35 <dbl>, q36 <dbl>, q37 <dbl>,
#   q38 <dbl>, q39 <dbl>, q40 <dbl>, q41 <dbl>, q42 <dbl>, q43 <dbl>, …
…
