Multilevel Models
…
---
# MLM Example: Plotting the model
#### **broom.mixed::augment()** for cluster-specific fits

.pull-left[

```r
library(broom.mixed)
augment(cogtime_model)
```

```
## # A tibble: 200 × 14
##      cog visit_n partici…¹ .fitted  .resid   .hat .cooksd .fixed   .mu .offset .sqrt…² .sqrt…³ .weig…⁴
##    <dbl>   <dbl> <fct>       <dbl>   <dbl>  <dbl>   <dbl>  <dbl> <dbl>   <dbl>   <dbl>   <dbl>   <dbl>
##  1  56.1       1 1            69.7 -13.6   0.0782 2.25e-1   67.3  69.7       0       1       1       1
##  2  71.5       2 1            69.6   1.93  0.0684 3.86e-3   66.1  69.6       0       1       1       1
##  3  68.9       3 1            69.5  -0.611 0.0653 3.69e-4   64.9  69.5       0       1       1       1
##  4  73.0       4 1            69.3   3.62  0.0690 1.38e-2   63.7  69.3       0       1       1       1
##  5  59.4       5 1            69.2  -9.79  0.0793 1.18e-1   62.5  69.2       0       1       1       1
##  6  76.4       6 1            69.1   7.32  0.0964 8.33e-2   61.2  69.1       0       1       1       1
##  7  72.1       7 1            69.0   3.16  0.120  2.04e-2   60.0  69.0       0       1       1       1
##  8  64.2       8 1            68.8  -4.64  0.151  5.94e-2   58.8  68.8       0       1       1       1
##  9  74.3       9 1            68.7   5.65  0.188  1.20e-1   57.6  68.7       0       1       1       1
## 10  69.7      10 1            68.6   1.16  0.232  6.95e-3   56.4  68.6       0       1       1       1
## # … with 190 more rows, 1 more variable: .wtres <dbl>, and abbreviated variable names ¹​participant,
## #   ²​.sqrtXwt, ³​.sqrtrwt, ⁴​.weights
## # ℹ Use `print(n = ...)` to see more rows, and `colnames()` to see all variable names
```
…
