Assumptions & Diagnostics More random effects
…
```
##  [1] "id"               "emot_dysreg"      "crq"              "age"             
##  [5] "int"              "schoolid"         "cooksd"           "mdffits"         
##  [9] "covtrace"         "covratio"         "leverage.overall"
```

```r
infl1
```

```
## # A tibble: 174 × 11
##       id emot_dysreg   crq   age int     schoo…¹  cooksd mdffits covtr…² covra…³
##    <int>       <dbl> <dbl> <dbl> <fct>   <fct>     <dbl>   <dbl>   <dbl>   <dbl>
##  1     1        4.12  1.92    14 Treatm… school1 6.60e-5 6.59e-5 8.69e-4    1.00
##  2     2        3.22  1.65    11 Treatm… school1 7.49e-3 7.34e-3 1.94e-2    1.02
##  3     3        4.86  3.56    16 Treatm… school1 1.85e-2 1.80e-2 2.52e-2    1.03
##  4     4        4.79  1.45    16 Treatm… school1 1.95e-5 1.92e-5 1.69e-2    1.02
##  5     5        3.58  0.81    12 Treatm… school1 6.92e-3 6.79e-3 1.85e-2    1.02
##  6     6        4.41  2.71    15 Treatm… school1 4.10e-6 4.07e-6 6.01e-3    1.01
##  7     7        4.23  3.01    14 Treatm… school1 1.04e-3 1.04e-3 6.20e-3    1.01
##  8     8        3.66  1.61    12 Treatm… school1 1.02e-4 1.01e-4 8.97e-3    1.01
##  9     9        4.22  2.17    14 Treatm… school1 7.50e-6 7.50e-6 5.68e-4    1.00
## 10    10        4.42  2.28    14 Treatm… school2 2.54e-4 2.53e-4 4.66e-3    1.00
## # … with 164 more rows, 1 more variable: leverage.overall <dbl>, and
## #   abbreviated variable names ¹​schoolid, ²​covtrace, ³​covratio
## # ℹ Use `print(n = ...)` to see more rows, and `colnames()` to see all variable names
```
…
