W3 Exercises: Nested and Crossed Structures – DAPR3 Lab Exercises
…
We can make it long by taking the all the columns from visit_0 to visit_4 (that is, from the second column 2 to the last column last_col()) and shoving their values into one variable called GAD, and keeping the name of the column they come from as another variable called visit:

geduc |> 
  pivot_longer(2:last_col(), names_to="visit",values_to="GAD")

# A tibble: 2,410 × 3
   patient      visit     GAD
   <chr>        <chr>   <dbl>
 1 VC_Control_1 visit_0    24
 2 VC_Control_1 visit_1    24
 3 VC_Control_1 visit_2    26
 4 VC_Control_1 visit_3    29
 5 VC_Control_1 visit_4    28
 6 VC_Control_2 visit_0    24
 7 VC_Control_2 visit_1    26
 8 VC_Control_2 visit_2    28
 9 VC_Control_2 visit_3    29
10 VC_Control_2 visit_4    30
# ℹ 2,400 more rows
…
In general, building up and running your data wrangling pipeline step by step, the way we’re illustrating here, is a good way to make sure each step of your code really is doing what you think it’s doing.

2 - time is numeric

Solution 2. Now we know how to get our data long, we need to sort out our time variable (visit) and make it into numbers.

We can replace all occurrences of the string "visit_" in our data with nothingness "", and then convert what remains—the visit number—to numeric.

geduc |> 
  pivot_longer(2:last_col(), names_to="visit",values_to="GAD") |>
  mutate(
    visit = as.numeric(gsub("visit_","",visit))
  ) 

# A tibble: 2,410 × 3
   patient      visit   GAD
   <chr>        <dbl> <dbl>
 1 VC_Control_1     0    24
 2 VC_Control_1     1    24
 3 VC_Control_1     2    26
 4 VC_Control_1     3    29
 5 VC_Control_1     4    28
 6 VC_Control_2     0    24
 7 VC_Control_2     1    26
 8 VC_Control_2     2    28
 9 VC_Control_2     3    29
10 VC_Control_2     4    30
# ℹ 2,400 more rows
…
The separate() function takes a column and separates it into several things (as many things as we give it), splitting them by some user defined separator such as an underscore:

geduc_long <- geduc |> 
  pivot_longer(2:last_col(), names_to="visit",values_to="GAD") |>
  mutate(
    visit = as.numeric(gsub("visit_","",visit))
  ) |>
  separate(patient, into=c("therapist","group","patient"), sep="_")

And we’re ready to go!

geduc_long

# A tibble: 2,410 × 5
   therapist group   patient visit   GAD
   <chr>     <chr>   <chr>   <dbl> <dbl>
 1 VC        Control 1           0    24
 2 VC        Control 1           1    24
 3 VC        Control 1           2    26
 4 VC        Control 1           3    29
 5 VC        Control 1           4    28
 6 VC        Control 2           0    24
 7 VC        Control 2           1    26
 8 VC        Control 2           2    28
 9 VC        Control 2           3    29
10 VC        Control 2           4    30
# ℹ 2,400 more rows
…
We want to get the fitted values for each patient. We can get fitted values using augment(). But the patient variable doesn’t capture the unique patients, it just captures their numbers (which aren’t unique to each therapist).

So we can create a new column called upatient which pastes together the therapists initials and the patient numbers

augment(mod1) |> 
  mutate(
    upatient = paste0(therapist,patient),
    .after = patient # place the column next to the patient col
  )

# A tibble: 2,410 × 17
     GAD visit group   therapist patient upatient .fitted .resid  .hat .cooksd
   <dbl> <dbl> <fct>   <fct>     <fct>   <chr>      <dbl>  <dbl> <dbl>   <dbl>
 1    24     0 Control VC        1       VC1         24.2 -0.198 0.454 0.0210 
 2    24     1 Control VC        1       VC1         25.3 -1.28  0.239 0.239  
 3    26     2 Control VC        1       VC1         26.4 -0.360 0.186 0.0128 
 4    29     3 Control VC        1       VC1         27.4  1.56  0.294 0.508  
 5    28     4 Control VC        1       VC1         28.5 -0.522 0.563 0.284  
 6    24     0 Control VC        2       VC2         24.8 -0.843 0.454 0.383  
 7    26     1 Control VC        2       VC2         26.2 -0.171 0.239 0.00426
 8    28     2 Control VC        2       VC2         27.5  0.502 0.186 0.0250 
 9    29     3 Control VC        2       VC2         28.8  0.174 0.294 0.00633
10    30     4 Control VC        2       VC2         30.2 -0.153 0.563 0.0246 
# ℹ 2,400 more rows
# ℹ 7 more variables: .fixed <dbl>, .mu <dbl>, .offset <dbl>, .sqrtXwt <dbl>,
#   .sqrtrwt <dbl>, .weights <dbl>, .wtres <dbl>
…
